ZHAW - Exercise 3 - Assignment
…
caro <- caro %>%
  mutate(segment_id = rle_id(static))

caro

## Simple feature collection with 200 features and 15 fields
## Geometry type: POINT
## Dimension:     XY
## Bounding box:  xmin: 2570481 ymin: 1205055 xmax: 2570626 ymax: 1205130
## Projected CRS: CH1903+ / LV95
## # A tibble: 200 x 16
##    TierID TierName CollarID DatetimeUTC                       E        N
##  * <chr>  <chr>       <dbl> <dttm>                        <dbl>    <dbl>
##  1 010C   Caro        13973 2015-09-15 08:07:00.000000 2570589. 1205095.
##  2 010C   Caro        13973 2015-09-15 08:08:00.000000 2570573. 1205096.
##  3 010C   Caro        13973 2015-09-15 08:09:00.000000 2570536. 1205099.
##  4 010C   Caro        13973 2015-09-15 08:10:00.000000 2570518. 1205115.
##  5 010C   Caro        13973 2015-09-15 08:11:00.000000 2570499. 1205130.
##  6 010C   Caro        13973 2015-09-15 08:12:00.000000 2570489. 1205130.
##  7 010C   Caro        13973 2015-09-15 08:13:00.000000 2570482. 1205124.
##  8 010C   Caro        13973 2015-09-15 08:14:00.000000 2570481. 1205108.
##  9 010C   Caro        13973 2015-09-15 08:15:00.000000 2570486. 1205099.
## 10 010C   Caro        13973 2015-09-15 08:16:00.000000 2570490. 1205100.
## #  with 190 more rows, and 10 more variables: geometry <POINT [m]>,
## #   nMinus3 <dbl>, nMinus2 <dbl>, nMinus1 <dbl>, nPlus1 <dbl>, nPlus2 <dbl>,
## #   nPlus3 <dbl>, stepMean <dbl>, static <lgl>, segment_id <fct>
…
